module pustaka_api

go 1.19

require gorm.io/driver/mysql v1.3.6

require (
	github.com/gin-contrib/sse v0.1.0 // indirect
	github.com/gin-gonic/gin v1.8.1 // indirect
	github.com/go-playground/locales v0.14.0 // indirect
	github.com/go-playground/universal-translator v0.18.0 // indirect
	github.com/go-playground/validator/v10 v10.11.1 // indirect
	github.com/go-sql-driver/mysql v1.6.0 // indirect
	github.com/goccy/go-json v0.9.11 // indirect
	github.com/golang/snappy v0.0.1 // indirect
	github.com/jinzhu/inflection v1.0.0 // indirect
	github.com/jinzhu/now v1.1.5 // indirect
	github.com/json-iterator/go v1.1.12 // indirect
	github.com/klauspost/compress v1.13.6 // indirect
	github.com/leodido/go-urn v1.2.1 // indirect
	github.com/mattn/go-isatty v0.0.16 // indirect
	github.com/modern-go/concurrent v0.0.0-20180306012644-bacd9c7ef1dd // indirect
	github.com/modern-go/reflect2 v1.0.2 // indirect
	github.com/pelletier/go-toml/v2 v2.0.5 // indirect
	github.com/ugorji/go/codec v1.2.7 // indirect
	go.mongodb.org/mongo-driver v1.10.2 // indirect
	golang.org/x/crypto v0.0.0-20220919173607-35f4265a4bc0 // indirect
	golang.org/x/net v0.0.0-20220921203646-d300de134e69 // indirect
	golang.org/x/sys v0.0.0-20220919091848-fb04ddd9f9c8 // indirect
	golang.org/x/text v0.3.7 // indirect
	google.golang.org/protobuf v1.28.1 // indirect
	gopkg.in/yaml.v2 v2.4.0 // indirect
	gorm.io/gorm v1.23.10 // indirect
)
